<?xml version="1.0" encoding="utf-8"?>
<!-- Generator: Adobe Illustrator 23.0.1, SVG Export Plug-In . SVG Version: 6.00 Build 0)  -->
<svg version="1.1" id="Layer_1" xmlns="http://www.w3.org/2000/svg" xmlns:xlink="http://www.w3.org/1999/xlink" x="0px" y="0px"
	 viewBox="0 0 379.6 94.1" style="enable-background:new 0 0 379.6 94.1;" xml:space="preserve">
<style type="text/css">
	.st0{fill:#373A46;}
</style>
<g id="Bisnar__x7C__Chase">
	<g>
		<path class="st0" d="M30.8,17.5c0-2.9-0.2-3.7-2.1-3.8l-1.4-0.1c-0.3-0.2-0.3-0.8,0-1c2.3-0.2,5.3-0.3,9.3-0.3
			c2.7,0,5.3,0.2,7.3,1.1c1.9,0.8,3.3,2.4,3.3,4.9c0,2.8-1.8,4.3-4.4,5.4c0,0.4,0.3,0.5,0.8,0.6c2.3,0.4,5.8,2.4,5.8,6.6
			c0,4.6-3.7,7.7-11.5,7.7c-1.3,0-3.4-0.1-5.2-0.1c-1.9,0-3.4,0.1-5,0.1c-0.3-0.1-0.3-0.8-0.1-1l0.8-0.1c2.3-0.4,2.4-0.8,2.4-4.9
			C30.8,32.6,30.8,17.5,30.8,17.5z M34.4,22.7c0,1.1,0,1.2,2.2,1.1c4.4-0.2,6.8-1.3,6.8-5.1c0-3.9-3.2-5.3-6.4-5.3
			c-1,0-1.6,0.1-2,0.2c-0.4,0.1-0.6,0.3-0.6,1V22.7z M34.4,31.9c0,1.4,0.1,3.4,0.9,4.3c0.8,0.9,2.1,1.1,3.4,1.1
			c3.9,0,6.8-1.6,6.8-5.5c0-3.1-1.7-6.8-8.6-6.8c-2.3,0-2.5,0.2-2.5,1V31.9z"/>
		<path class="st0" d="M61.3,20.8c0-3.7-0.1-4.3-2.3-4.5l-1-0.1c-0.2-0.1-0.2-0.8,0.1-0.9c1.9,0.1,3.2,0.1,4.8,0.1
			c1.5,0,2.8,0,4.7-0.1c0.2,0.1,0.3,0.7,0.1,0.9l-1,0.1c-2.2,0.2-2.3,0.8-2.3,4.5v12.4c0,3.7,0.1,4.2,2.3,4.4l1,0.1
			c0.2,0.1,0.2,0.8-0.1,0.9c-1.9-0.1-3.2-0.1-4.7-0.1c-1.6,0-2.9,0-4.8,0.1c-0.2-0.1-0.3-0.7-0.1-0.9l1-0.1c2.2-0.2,2.3-0.7,2.3-4.4
			V20.8z"/>
		<path class="st0" d="M82.2,39c-3.2,0-5.2-0.9-5.9-1.3c-0.5-0.8-1-3.2-1-4.9c0.2-0.2,0.8-0.3,0.9-0.1c0.6,1.8,2.1,5.2,6.6,5.2
			c3.2,0,4.8-1.9,4.8-4c0-1.5-0.3-3.2-3.1-4.9l-3.6-2.2c-1.9-1.1-4.1-3.1-4.1-6c0-3.3,2.8-6,7.8-6c1.2,0,2.6,0.2,3.5,0.5
			c0.5,0.1,1,0.2,1.3,0.2c0.3,0.8,0.7,2.8,0.7,4.2c-0.2,0.2-0.8,0.3-1,0.1c-0.5-1.7-1.5-3.9-5.2-3.9s-4.5,2.3-4.5,3.9
			c0,2,1.8,3.5,3.2,4.3l3,1.7c2.4,1.4,4.8,3.4,4.8,6.7C90.3,36.4,87.2,39,82.2,39z"/>
		<path class="st0" d="M122.1,32.5c0,1,0,5.2,0.1,6.1c-0.1,0.2-0.3,0.4-0.7,0.4c-0.5-0.6-1.6-1.8-4.9-5.3l-8.8-9.2
			c-1-1.1-3.6-3.9-4.4-4.7h-0.1c-0.2,0.4-0.2,1.2-0.2,2.3v7.6c0,1.6,0,6.2,0.7,7.2c0.2,0.4,1,0.6,1.9,0.7l1.2,0.1
			c0.2,0.3,0.2,0.7-0.1,0.9c-1.7-0.1-3-0.1-4.5-0.1c-1.6,0-2.6,0-4,0.1c-0.3-0.2-0.3-0.7-0.1-0.9l1-0.1c0.9-0.1,1.5-0.3,1.7-0.7
			c0.5-1.3,0.5-5.5,0.5-7.2v-10c0-1,0-1.7-0.8-2.5c-0.5-0.5-1.4-0.7-2.4-0.8l-0.6-0.1c-0.2-0.2-0.2-0.7,0.1-0.9
			c1.6,0.1,3.6,0.1,4.3,0.1c0.6,0,1.3,0,1.8-0.1c0.8,1.8,5.3,6.4,6.5,7.7l3.7,3.8c2.6,2.7,4.5,4.6,6.3,6.3h0.1
			c0.2-0.2,0.2-0.7,0.2-1.5v-7.4c0-1.6,0-6.2-0.8-7.2c-0.2-0.3-0.8-0.5-2.4-0.7l-0.6-0.1c-0.3-0.2-0.2-0.8,0.1-0.9
			c1.8,0.1,3,0.1,4.5,0.1c1.6,0,2.6,0,3.9-0.1c0.3,0.2,0.3,0.7,0.1,0.9l-0.5,0.1c-1.2,0.2-2,0.5-2.1,0.7c-0.6,1.3-0.6,5.6-0.6,7.2
			L122.1,32.5L122.1,32.5z"/>
		<path class="st0" d="M146.4,30.3c-0.3-0.8-0.4-0.9-1.6-0.9H139c-1,0-1.2,0.1-1.4,0.8l-1.3,3.7c-0.6,1.6-0.8,2.5-0.8,2.9
			s0.2,0.6,1.1,0.7l1.3,0.1c0.3,0.2,0.3,0.7-0.1,0.9c-1-0.1-2.2-0.1-4-0.1c-1.3,0-2.6,0.1-3.7,0.1c-0.2-0.1-0.3-0.7-0.1-0.9l1.3-0.1
			c0.9-0.1,1.8-0.5,2.3-1.7c0.7-1.6,1.8-3.9,3.4-7.8l3.9-9.4c0.5-1.3,0.8-1.9,0.6-2.5c0.9-0.2,1.6-0.9,2-1.3c0.2,0,0.5,0.1,0.6,0.3
			c0.5,1.5,1.1,3.1,1.7,4.7l5.2,14c1.1,3,1.6,3.5,3.2,3.7l1,0.1c0.3,0.2,0.2,0.7,0,0.9c-1.6-0.1-2.9-0.1-4.6-0.1
			c-1.8,0-3.3,0.1-4.4,0.1c-0.3-0.1-0.3-0.7-0.1-0.9l1.1-0.1c0.8-0.1,1.3-0.3,1.3-0.6c0-0.4-0.2-1-0.5-1.8L146.4,30.3z M138.9,27.3
			c-0.3,0.8-0.3,0.8,0.8,0.8h4.7c1.1,0,1.2-0.1,0.8-1.1l-2.1-5.7c-0.3-0.8-0.6-1.8-0.9-2.2h-0.1c-0.1,0.2-0.5,1-0.9,2.1L138.9,27.3z
			"/>
		<path class="st0" d="M163.9,20.7c0-3.3-0.1-3.9-1.7-4.1l-1.2-0.1c-0.3-0.2-0.3-0.7,0-0.9c2.1-0.2,4.8-0.3,8.5-0.3
			c2.4,0,4.6,0.2,6.4,1c1.8,0.9,3.2,2.4,3.2,4.9c0,3.3-2.9,5.1-4.8,5.8c-0.2,0.2,0,0.6,0.2,0.8c3,4.5,5.1,7.3,7.7,9.3
			c0.6,0.5,1.6,0.9,2.6,1c0.2,0.1,0.2,0.3,0,0.5c-0.3,0.1-1,0.2-1.7,0.2c-3.2,0-5.2-0.9-7.9-4.4c-1-1.3-2.6-3.7-3.7-5.3
			c-0.6-0.8-1.2-1.1-2.7-1.1c-1.7,0-1.8,0-1.8,0.8v4.4c0,3.7,0.1,4.1,2.3,4.3l0.8,0.1c0.2,0.2,0.2,0.8-0.1,0.9
			c-1.7-0.1-3-0.1-4.5-0.1c-1.6,0-3,0-4.8,0.1c-0.2-0.1-0.3-0.6-0.1-0.9l1-0.1c2.2-0.2,2.3-0.7,2.3-4.3V20.7z M167.1,25.7
			c0,0.6,0,1,0.1,1.1s0.7,0.2,2.6,0.2c1.4,0,2.8-0.1,3.9-0.9c1-0.7,1.9-1.9,1.9-4.3c0-2.7-1.9-5.4-6.1-5.4c-2.4,0-2.5,0.1-2.5,1.1
			v8.2H167.1z"/>
		<path class="st0" d="M198.3,44.1H196V9.3h2.2v34.8H198.3z"/>
		<path class="st0" d="M217.2,15.1c3.2-2.3,7.2-3.4,11.7-3.4c2.3,0,5.6,0.4,7.7,0.9c0.5,0.1,0.8,0.2,1.2,0.2c0,0.9,0.3,3.4,0.6,5.8
			c-0.2,0.3-0.9,0.3-1.2,0.1c-0.6-2.7-2.6-5.8-8.9-5.8c-6.6,0-12.2,3.8-12.2,12c0,8.3,5.8,12.9,12.8,12.9c5.6,0,8-3.3,9-5.6
			c0.3-0.2,1-0.1,1.1,0.2c-0.3,2.1-1.4,4.7-2.1,5.4c-0.5,0.1-1,0.2-1.5,0.4c-1,0.3-4.1,0.9-6.8,0.9c-3.9,0-7.6-0.7-10.8-2.6
			c-3.5-2.2-6.1-5.8-6.1-10.9C211.8,21.2,214,17.4,217.2,15.1z"/>
		<path class="st0" d="M254.4,27.2c-1.8,0-1.9,0.1-1.9,1.1v4.9c0,3.7,0.2,4.1,2.3,4.3l1.1,0.1c0.2,0.1,0.2,0.8-0.1,0.9
			c-2.1-0.1-3.4-0.1-4.8-0.1c-1.6,0-2.9,0.1-4.4,0.1c-0.2-0.1-0.3-0.7-0.1-0.9l0.6-0.1c2.1-0.3,2.2-0.7,2.2-4.3V20.7
			c0-3.7-0.3-4.2-2.2-4.4l-1-0.1c-0.2-0.1-0.2-0.8,0.1-0.9c1.9,0,3.2,0.1,4.8,0.1c1.5,0,2.8,0,4.4-0.1c0.2,0.1,0.3,0.7,0.1,0.9
			l-0.7,0.1c-2.2,0.2-2.3,0.7-2.3,4.4v4c0,1.1,0.1,1.1,1.9,1.1h10.9c1.8,0,1.9,0,1.9-1.1v-4c0-3.7-0.1-4.2-2.3-4.4l-0.7-0.1
			c-0.2-0.1-0.2-0.8,0.1-0.9c1.8,0.1,3,0.1,4.6,0.1c1.5,0,2.8,0,4.5-0.1c0.2,0.1,0.3,0.7,0.1,0.9l-0.8,0.1c-2.2,0.2-2.3,0.7-2.3,4.4
			v12.5c0,3.7,0.1,4.1,2.3,4.3l0.9,0.1c0.2,0.1,0.2,0.8-0.1,0.9c-1.8-0.1-3.1-0.1-4.6-0.1c-1.6,0-2.9,0-4.6,0.1
			c-0.2-0.1-0.3-0.7-0.1-0.9l0.7-0.1c2.3-0.3,2.3-0.7,2.3-4.3v-4.9c0-1-0.1-1.1-1.9-1.1H254.4z"/>
		<path class="st0" d="M295.1,30.3c-0.3-0.8-0.4-0.9-1.6-0.9h-5.8c-1,0-1.2,0.1-1.4,0.8L285,34c-0.6,1.6-0.8,2.5-0.8,2.9
			s0.2,0.6,1.1,0.7l1.3,0.1c0.3,0.2,0.3,0.7-0.1,0.9c-1-0.1-2.2-0.1-4-0.1c-1.3,0-2.6,0.1-3.7,0.1c-0.2-0.1-0.3-0.7-0.1-0.9l1.3-0.1
			c0.9-0.1,1.8-0.5,2.3-1.7c0.7-1.6,1.8-3.9,3.4-7.8l3.9-9.4c0.5-1.3,0.8-1.9,0.6-2.5c0.9-0.2,1.6-0.9,2-1.3c0.2,0,0.5,0.1,0.6,0.3
			c0.5,1.5,1.1,3.1,1.7,4.7l5.2,14c1.1,3,1.6,3.5,3.2,3.7l1,0.1c0.3,0.2,0.2,0.7,0,0.9c-1.6-0.1-2.9-0.1-4.6-0.1
			c-1.8,0-3.3,0.1-4.4,0.1c-0.3-0.1-0.3-0.7-0.1-0.9l1.1-0.1c0.8-0.1,1.3-0.3,1.3-0.6c0-0.4-0.2-1-0.5-1.8L295.1,30.3z M287.6,27.3
			c-0.3,0.8-0.3,0.8,0.8,0.8h4.7c1.1,0,1.2-0.1,0.8-1.1l-2.1-5.7c-0.3-0.8-0.6-1.8-0.9-2.2h-0.1c-0.1,0.2-0.5,1-0.9,2.1L287.6,27.3z
			"/>
		<path class="st0" d="M316.3,39c-3.2,0-5.2-0.9-5.9-1.3c-0.5-0.8-1-3.2-1-4.9c0.2-0.2,0.8-0.3,0.9-0.1c0.6,1.8,2.1,5.2,6.6,5.2
			c3.2,0,4.8-1.9,4.8-4c0-1.5-0.3-3.2-3.1-4.9l-3.6-2.2c-1.9-1.1-4.1-3.1-4.1-6c0-3.3,2.8-6,7.8-6c1.2,0,2.6,0.2,3.5,0.5
			c0.5,0.1,1,0.2,1.3,0.2c0.3,0.8,0.7,2.8,0.7,4.2c-0.2,0.2-0.8,0.3-1,0.1c-0.5-1.7-1.5-3.9-5.2-3.9s-4.5,2.3-4.5,3.9
			c0,2,1.8,3.5,3.2,4.3l3,1.7c2.4,1.4,4.8,3.4,4.8,6.7C324.4,36.4,321.3,39,316.3,39z"/>
		<path class="st0" d="M335.7,20.7c0-3.6-0.1-4.1-2.3-4.4l-0.6-0.1c-0.2-0.1-0.2-0.8,0.1-0.9c1.6,0.1,2.9,0.1,4.5,0.1h7.2
			c2.4,0,4.7,0,5.1-0.1c0.2,0.6,0.5,3.1,0.6,4.6c-0.2,0.2-0.8,0.3-1,0.1c-0.6-1.6-0.9-2.9-2.9-3.3c-0.8-0.2-2-0.2-3.7-0.2H340
			c-1.1,0-1.1,0.1-1.1,1.4v7c0,1,0.1,1,1.3,1h2.2c1.6,0,2.8-0.1,3.2-0.2s0.7-0.3,0.9-1.2l0.3-1.4c0.2-0.2,0.8-0.2,1,0
			c0,0.8-0.2,2.2-0.2,3.5s0.2,2.6,0.2,3.3c-0.2,0.2-0.8,0.2-1,0l-0.3-1.4c-0.2-0.6-0.4-1.1-1.2-1.3c-0.5-0.1-1.4-0.2-2.9-0.2H340
			c-1.1,0-1.3,0-1.3,0.9v4.9c0,1.8,0.1,3,0.7,3.6c0.5,0.4,1.3,0.8,4.6,0.8c2.9,0,4-0.1,4.9-0.5c0.7-0.3,1.7-1.6,2.7-3.4
			c0.3-0.2,0.8-0.1,1,0.2c-0.3,1.2-1.2,3.9-1.7,4.8c-3.4-0.1-6.8-0.1-10.2-0.1h-3.4c-1.6,0-2.9,0-5.2,0.1c-0.2-0.1-0.3-0.7-0.1-0.9
			l1.3-0.1c2.2-0.2,2.4-0.7,2.4-4.3L335.7,20.7L335.7,20.7z"/>
	</g>
</g>
<g id="PI_attorneys">
	<g>
		<path class="st0" d="M110.5,54h-2.6v-1h6.2v1h-2.6v7.5h-1.1L110.5,54L110.5,54z"/>
		<path class="st0" d="M122,53.2c0.6-0.1,1.3-0.2,2.1-0.2c1.2,0,1.9,0.2,2.4,0.7c0.4,0.4,0.7,1,0.7,1.6c0,1.1-0.7,1.9-1.6,2.2l0,0
			c0.7,0.2,1,0.8,1.2,1.7c0.3,1.2,0.5,2,0.7,2.3h-1.1c-0.1-0.2-0.3-1-0.6-2c-0.3-1.2-0.7-1.6-1.7-1.6h-1v3.7H122V53.2z M123.1,57
			h1.1c1.2,0,1.9-0.6,1.9-1.6c0-1.1-0.8-1.6-1.9-1.6c-0.5,0-0.9,0-1.1,0.1V57z"/>
		<path class="st0" d="M136.7,53v8.4h-1.1V53H136.7z"/>
		<path class="st0" d="M146.8,58.8l-0.9,2.7h-1.1l2.9-8.4h1.3l2.9,8.4h-1.2l-0.9-2.7H146.8z M149.6,58l-0.8-2.4
			c-0.2-0.6-0.3-1.1-0.4-1.5l0,0c-0.1,0.5-0.3,1-0.4,1.5l-1,2.4H149.6z"/>
		<path class="st0" d="M160,53h1.1v7.5h3.6v0.9H160V53z"/>
		<path class="st0" d="M182.3,53h1.1v7.5h3.6v0.9h-4.7L182.3,53L182.3,53z"/>
		<path class="st0" d="M196.5,58.8l-0.9,2.7h-1.1l2.9-8.4h1.3l2.9,8.4h-1.2l-0.9-2.7H196.5z M199.2,58l-0.8-2.4
			c-0.2-0.6-0.3-1.1-0.4-1.5l0,0c-0.1,0.5-0.3,1-0.4,1.5l-0.8,2.4H199.2z"/>
		<path class="st0" d="M210.4,61.5l-2.1-8.4h1.2l1,4.3c0.3,1.1,0.5,2.1,0.6,2.9l0,0c0.1-0.8,0.4-1.8,0.7-2.9l1.1-4.3h1.1l1,4.3
			c0.2,1,0.5,2,0.6,2.9l0,0c0.2-0.9,0.4-1.9,0.7-2.9l1.1-4.3h1.1l-2.4,8.4H215l-1.1-4.4c-0.3-1.1-0.4-1.9-0.6-2.8l0,0
			c-0.1,0.8-0.3,1.7-0.7,2.8l-1.2,4.4H210.4z"/>
		<path class="st0" d="M228.3,61.5v-3.6l-2.7-4.9h1.2l1.2,2.3c0.3,0.6,0.6,1.2,0.8,1.7l0,0c0.2-0.5,0.5-1.1,0.9-1.7L231,53h1.2
			l-2.8,4.8v3.6h-1.1V61.5z"/>
		<path class="st0" d="M244.4,57.5h-3.3v3h3.7v0.9H240V53h4.6v1h-3.5v2.7h3.3L244.4,57.5L244.4,57.5z"/>
		<path class="st0" d="M253,53.2c0.6-0.1,1.3-0.2,2.1-0.2c1.2,0,1.9,0.2,2.4,0.7c0.4,0.4,0.7,1,0.7,1.6c0,1.1-0.7,1.9-1.6,2.2l0,0
			c0.7,0.2,1,0.8,1.2,1.7c0.3,1.2,0.5,2,0.7,2.3h-1.1c-0.1-0.2-0.3-1-0.6-2c-0.3-1.2-0.7-1.6-1.7-1.6h-1v3.7H253V53.2z M254.1,57
			h1.1c1.2,0,1.9-0.6,1.9-1.6c0-1.1-0.8-1.6-1.9-1.6c-0.5,0-0.9,0-1.1,0.1V57z"/>
		<path class="st0" d="M266.5,60.2c0.5,0.3,1.2,0.6,2,0.6c1.1,0,1.8-0.6,1.8-1.4c0-0.8-0.5-1.2-1.6-1.7c-1.4-0.5-2.2-1.2-2.2-2.4
			c0-1.3,1.1-2.3,2.7-2.3c0.9,0,1.5,0.2,1.9,0.4l-0.3,0.9c-0.3-0.2-0.8-0.4-1.6-0.4c-1.2,0-1.6,0.7-1.6,1.3c0,0.8,0.5,1.2,1.7,1.6
			c1.4,0.5,2.2,1.2,2.2,2.5s-1,2.4-3,2.4c-0.8,0-1.7-0.2-2.2-0.5L266.5,60.2z"/>
	</g>
	<g>
		<path class="st0" d="M68.5,86c-1.8,0-2.9-0.5-3.3-0.8c-0.3-0.5-0.5-2-0.6-2.9c0.1-0.1,0.4-0.2,0.5-0.1c0.3,1.1,1.2,3.1,3.6,3.1
			c1.8,0,2.6-1.2,2.6-2.4c0-0.9-0.2-2-1.7-2.9l-2-1.3c-1-0.7-2.3-1.9-2.3-3.6c0-2,1.6-3.6,4.3-3.6c0.7,0,1.4,0.1,2,0.3
			c0.3,0.1,0.6,0.1,0.7,0.1c0.2,0.5,0.4,1.7,0.4,2.6c-0.1,0.1-0.4,0.2-0.5,0.1c-0.3-1-0.8-2.4-2.9-2.4s-2.5,1.4-2.5,2.3
			c0,1.2,1,2.1,1.8,2.6l1.7,1.1c1.3,0.8,2.6,2,2.6,4C73,84.4,71.2,86,68.5,86z"/>
		<path class="st0" d="M76.9,82.6c0,1.4,0.4,2.4,2,2.4c0.6,0,1.2-0.2,1.7-0.6c0.3-0.3,0.4-0.6,0.4-1.2v-3.4c0-1.4-0.1-1.4-0.8-1.7
			L79.9,78c-0.1-0.1-0.1-0.4,0-0.5c0.8,0,2-0.2,2.5-0.4c0.1,0,0.2,0.1,0.2,0.1c0,0.4-0.1,1-0.1,1.8v3.5c0,1.7,0.1,2.3,0.7,2.3
			c0.3,0,0.5,0,0.8-0.1c0.1,0.1,0.1,0.5,0,0.6c-0.8,0.2-2,0.4-2.8,0.8c-0.1,0-0.2-0.1-0.3-0.1v-0.9c0-0.2-0.1-0.3-0.2-0.3
			c-0.6,0.4-1.7,1.1-2.9,1.1c-1.8,0-2.5-0.9-2.5-2.6v-3.5c0-1.3,0-1.5-0.6-1.8l-0.3-0.1c-0.1-0.1-0.1-0.4,0-0.5c1,0,1.8-0.2,2.2-0.4
			c0.1,0,0.2,0.1,0.2,0.1c0,0.4-0.1,0.8-0.1,1.8v3.7H76.9z"/>
		<path class="st0" d="M86.1,79.6c0-0.8,0-0.9-0.6-1.3l-0.2-0.1c-0.1-0.1-0.1-0.3,0-0.4c0.5-0.2,1.5-0.7,2.1-1.1
			c0.1,0,0.2,0,0.3,0.1c0,0.4-0.1,0.7-0.1,1c0,0.1,0,0.3,0.2,0.3c0.3-0.1,1.6-1,2.9-1c2.1,0,3.5,1.7,3.5,3.8c0,2.9-2.1,5-5.1,5
			c-0.4,0-1,0-1.2-0.1c-0.2,0-0.3,0.1-0.3,0.6v2.2c0,1.5,0,1.7,0.8,1.8l0.8,0.1c0.1,0.1,0.1,0.5,0,0.5c-1,0-1.6-0.1-2.4-0.1
			s-1.4,0-2,0.1c-0.1-0.1-0.2-0.4,0-0.5l0.4-0.1c0.8-0.1,0.8-0.3,0.8-1.8L86.1,79.6L86.1,79.6z M87.7,83.5c0,0.7,0.2,0.9,0.6,1.3
			c0.4,0.3,1.1,0.5,1.5,0.5c1.7,0,2.7-1.6,2.7-3.8c0-1.7-0.9-3.4-2.8-3.4c-0.9,0-1.6,0.3-1.8,0.6c-0.2,0.2-0.3,0.5-0.3,1.2v3.6H87.7
			z"/>
		<path class="st0" d="M97.7,80.3c-0.5,0-0.6,0-0.6,0.6c0,2.1,1.2,3.9,3.5,3.9c0.7,0,1.3-0.2,1.9-1c0.2-0.1,0.4,0.1,0.4,0.3
			c-0.7,1.4-2.2,2-3.3,2c-1.4,0-2.4-0.6-3-1.4s-0.9-1.8-0.9-2.7c0-2.6,1.7-4.7,4.2-4.7c1.8,0,3,1.2,3,2.5c0,0.3,0,0.5-0.1,0.5
			c-0.1,0.1-0.4,0.1-1.2,0.1h-3.9V80.3z M99,79.6c1.6,0,2-0.1,2.2-0.2c0.1,0,0.1-0.1,0.1-0.4c0-0.6-0.4-1.3-1.6-1.3
			s-2.3,1.1-2.3,1.8c0,0,0,0.1,0.1,0.1H99z"/>
		<path class="st0" d="M105.3,79.6c0-0.8,0-0.9-0.6-1.3l-0.2-0.1c-0.1-0.1-0.1-0.3,0-0.4c0.5-0.2,1.6-0.7,2.1-1
			c0.1,0,0.2,0.1,0.2,0.1v1.2c0,0.1,0,0.2,0.1,0.2c0.7-0.6,1.5-1.3,2.3-1.3c0.5,0,0.9,0.3,0.9,0.8c0,0.7-0.6,1-0.9,1
			c-0.2,0-0.3-0.1-0.5-0.1c-0.3-0.2-0.6-0.3-0.9-0.3s-0.6,0.2-0.8,0.4c-0.2,0.3-0.3,0.9-0.3,1.6v2.9c0,1.5,0,1.8,0.8,1.8l0.8,0.1
			c0.1,0.1,0.1,0.5,0,0.5c-1,0-1.6-0.1-2.3-0.1c-0.8,0-1.4,0-1.9,0.1c-0.1-0.1-0.2-0.4,0-0.5l0.4-0.1c0.8-0.1,0.8-0.3,0.8-1.8V79.6z
			"/>
		<path class="st0" d="M112.3,79.6c0-0.8,0-0.9-0.6-1.3l-0.2-0.1c-0.1-0.1-0.1-0.3,0-0.4c0.5-0.2,1.7-0.7,2.2-1c0.1,0,0.2,0,0.2,0.1
			c0,0.7-0.1,1.7-0.1,2.6v3.8c0,1.5,0,1.7,0.8,1.8l0.4,0.1c0.1,0.1,0.1,0.5,0,0.5c-0.6,0-1.2-0.1-2-0.1s-1.4,0-2,0.1
			c-0.1-0.1-0.2-0.4,0-0.5l0.4-0.1c0.8-0.1,0.8-0.3,0.8-1.8L112.3,79.6L112.3,79.6z M114.1,73.6c0,0.8-0.5,1.1-1.1,1.1
			c-0.7,0-1.1-0.5-1.1-1c0-0.7,0.5-1.1,1.1-1.1S114.1,73.1,114.1,73.6z"/>
		<path class="st0" d="M125.1,81.4c0,2.6-1.8,4.5-4.4,4.5c-2.4,0-4.3-1.7-4.3-4.3c0-2.6,2-4.5,4.5-4.5
			C123.2,77.1,125.1,78.8,125.1,81.4z M120.6,77.7c-1.4,0-2.4,1.3-2.4,3.6c0,1.9,0.9,4,2.7,4s2.4-1.9,2.4-3.5
			C123.3,80,122.6,77.7,120.6,77.7z"/>
		<path class="st0" d="M127.9,79.6c0-0.8,0-0.9-0.6-1.3l-0.2-0.1c-0.1-0.1-0.1-0.3,0-0.4c0.5-0.2,1.6-0.7,2.1-1
			c0.1,0,0.2,0.1,0.2,0.1v1.2c0,0.1,0,0.2,0.1,0.2c0.7-0.6,1.5-1.3,2.3-1.3c0.5,0,0.9,0.3,0.9,0.8c0,0.7-0.6,1-0.9,1
			c-0.2,0-0.3-0.1-0.5-0.1c-0.3-0.2-0.6-0.3-0.9-0.3c-0.3,0-0.6,0.2-0.8,0.4c-0.2,0.3-0.3,0.9-0.3,1.6v2.9c0,1.5,0,1.8,0.8,1.8
			l0.8,0.1c0.1,0.1,0.1,0.5,0,0.5c-1,0-1.6-0.1-2.3-0.1c-0.8,0-1.4,0-1.9,0.1c-0.1-0.1-0.2-0.4,0-0.5l0.4-0.1
			c0.8-0.1,0.8-0.3,0.8-1.8L127.9,79.6L127.9,79.6z"/>
		<path class="st0" d="M141.6,73.2c1.5-1.2,3.5-1.8,5.7-1.8c1.1,0,2.7,0.2,3.7,0.5c0.3,0.1,0.4,0.1,0.6,0.1c0,0.5,0.1,1.8,0.3,3.1
			c-0.1,0.1-0.4,0.2-0.6,0C151,73.7,150,72,147,72c-3.2,0-5.9,2-5.9,6.4s2.8,6.8,6.2,6.8c2.7,0,3.9-1.8,4.4-3
			c0.1-0.1,0.5-0.1,0.5,0.1c-0.1,1.1-0.7,2.5-1,2.9c-0.3,0-0.5,0.1-0.7,0.2c-0.5,0.2-2,0.5-3.3,0.5c-1.9,0-3.7-0.4-5.2-1.4
			c-1.7-1.2-3-3.1-3-5.8C139,76.5,140.1,74.5,141.6,73.2z"/>
		<path class="st0" d="M156.1,83.3c0,1.5,0,1.7,0.8,1.8l0.5,0.1c0.1,0.1,0.1,0.5,0,0.5c-0.7,0-1.3-0.1-2-0.1c-0.8,0-1.4,0-2,0.1
			c-0.1-0.1-0.2-0.4,0-0.5l0.5-0.1c0.8-0.1,0.8-0.3,0.8-1.8v-9.5c0-1.2,0-1.4-0.7-1.7l-0.2-0.1c-0.1-0.1-0.1-0.4,0-0.4
			c0.5-0.2,1.5-0.5,2.3-0.9c0.1,0,0.2,0,0.2,0.1c0,0.6-0.1,1.7-0.1,2.6v9.9H156.1z"/>
		<path class="st0" d="M159.9,79.6c0-0.8,0-0.9-0.6-1.3l-0.2-0.1c-0.1-0.1-0.1-0.3,0-0.4c0.5-0.2,1.7-0.7,2.2-1c0.1,0,0.2,0,0.2,0.1
			c0,0.7-0.1,1.7-0.1,2.6v3.8c0,1.5,0,1.7,0.8,1.8l0.4,0.1c0.1,0.1,0.1,0.5,0,0.5c-0.6,0-1.2-0.1-2-0.1s-1.4,0-2,0.1
			c-0.1-0.1-0.2-0.4,0-0.5l0.4-0.1c0.8-0.1,0.8-0.3,0.8-1.8v-3.7H159.9z M161.7,73.6c0,0.8-0.5,1.1-1.1,1.1c-0.7,0-1.1-0.5-1.1-1
			c0-0.7,0.5-1.1,1.1-1.1C161.3,72.6,161.7,73.1,161.7,73.6z"/>
		<path class="st0" d="M166,80.3c-0.5,0-0.6,0-0.6,0.6c0,2.1,1.2,3.9,3.5,3.9c0.7,0,1.3-0.2,1.9-1c0.2-0.1,0.4,0.1,0.4,0.3
			c-0.7,1.4-2.2,2-3.3,2c-1.4,0-2.4-0.6-3-1.4S164,82.9,164,82c0-2.6,1.7-4.7,4.2-4.7c1.8,0,3,1.2,3,2.5c0,0.3,0,0.5-0.1,0.5
			c-0.1,0.1-0.4,0.1-1.2,0.1H166V80.3z M167.3,79.6c1.6,0,2-0.1,2.2-0.2c0.1,0,0.1-0.1,0.1-0.4c0-0.6-0.4-1.3-1.6-1.3
			c-1.2,0-2.3,1.1-2.3,1.8c0,0,0,0.1,0.1,0.1H167.3z"/>
		<path class="st0" d="M173.7,79.6c0-0.8,0-0.9-0.6-1.3l-0.2-0.1c-0.1-0.1-0.1-0.3,0-0.4c0.5-0.2,1.7-0.7,2.1-1c0.1,0,0.2,0,0.2,0.1
			c0,0.5,0,0.8,0,1c0,0.1,0.1,0.2,0.2,0.2c0.9-0.5,1.9-1.1,2.9-1.1c1.7,0,2.5,1.2,2.5,2.6v3.6c0,1.5,0,1.7,0.8,1.8l0.5,0.1
			c0.1,0.1,0.1,0.5,0,0.5c-0.6,0-1.2-0.1-2-0.1s-1.4,0-2,0.1c-0.1-0.1-0.2-0.4,0-0.5l0.4-0.1c0.8-0.1,0.8-0.3,0.8-1.8v-3.1
			c0-1.2-0.5-2.1-2-2.1c-0.8,0-1.5,0.3-1.8,0.7c-0.3,0.4-0.3,0.7-0.3,1.3v3.2c0,1.5,0,1.7,0.8,1.8l0.4,0.1c0.1,0.1,0.1,0.5,0,0.5
			c-0.6,0-1.2-0.1-1.9-0.1c-0.8,0-1.4,0-2,0.1c-0.1-0.1-0.2-0.4,0-0.5l0.4-0.1c0.8-0.1,0.8-0.3,0.8-1.8L173.7,79.6L173.7,79.6z"/>
		<path class="st0" d="M186.4,78.3c-0.4,0-0.4,0.1-0.4,0.5v3.9c0,1.2,0.1,2.3,1.5,2.3c0.2,0,0.4,0,0.6-0.1c0.2-0.1,0.5-0.3,0.5-0.3
			c0.2,0,0.3,0.2,0.2,0.4c-0.4,0.4-1.1,1-2.2,1c-1.8,0-2.2-1-2.2-2.3v-4.8c0-0.6,0-0.6-0.4-0.6h-0.6c-0.1-0.1-0.1-0.3-0.1-0.4
			c0.6-0.2,1.1-0.5,1.3-0.7c0.3-0.3,0.7-0.8,0.9-1.2c0.1,0,0.4,0,0.4,0.1V77c0,0.4,0,0.4,0.4,0.4h2.3c0.3,0.2,0.2,0.8,0,0.9H186.4z"
			/>
		<path class="st0" d="M197,75c0-2-0.1-2.4-0.9-2.5l-0.7-0.1c-0.1-0.1-0.1-0.4,0-0.5c1.2-0.1,2.6-0.2,4.7-0.2c1.3,0,2.5,0.1,3.5,0.6
			s1.7,1.5,1.7,2.9c0,2-1.6,3.1-2.6,3.5c-0.1,0.1,0,0.3,0.1,0.5c1.7,2.7,2.8,4.4,4.2,5.6c0.4,0.3,0.9,0.5,1.4,0.6
			c0.1,0,0.1,0.2,0,0.3c-0.2,0.1-0.5,0.1-0.9,0.1c-1.8,0-2.9-0.5-4.3-2.6c-0.5-0.8-1.4-2.2-2.1-3.2c-0.3-0.5-0.7-0.7-1.5-0.7
			c-0.9,0-1,0-1,0.5v2.6c0,2.2,0,2.5,1.3,2.6l0.4,0.1c0.1,0.1,0.1,0.5,0,0.5c-0.9,0-1.7-0.1-2.5-0.1c-0.9,0-1.6,0-2.6,0.1
			c-0.1-0.1-0.2-0.4,0-0.5l0.5-0.1c1.2-0.1,1.3-0.4,1.3-2.6L197,75L197,75z M198.7,78c0,0.4,0,0.6,0.1,0.7s0.4,0.1,1.4,0.1
			c0.8,0,1.6-0.1,2.2-0.5c0.6-0.4,1.1-1.2,1.1-2.6c0-1.7-1-3.2-3.4-3.2c-1.3,0-1.4,0.1-1.4,0.7L198.7,78L198.7,78z"/>
		<path class="st0" d="M210.3,80.3c-0.5,0-0.6,0-0.6,0.6c0,2.1,1.2,3.9,3.5,3.9c0.7,0,1.3-0.2,1.9-1c0.2-0.1,0.4,0.1,0.4,0.3
			c-0.7,1.4-2.2,2-3.3,2c-1.4,0-2.4-0.6-3-1.4s-0.9-1.8-0.9-2.7c0-2.6,1.7-4.7,4.2-4.7c1.8,0,3,1.2,3,2.5c0,0.3,0,0.5-0.1,0.5
			c-0.1,0.1-0.4,0.1-1.2,0.1h-3.9V80.3z M211.6,79.6c1.6,0,2-0.1,2.2-0.2c0.1,0,0.1-0.1,0.1-0.4c0-0.6-0.4-1.3-1.6-1.3
			c-1.2,0-2.3,1.1-2.3,1.8c0,0,0,0.1,0.1,0.1H211.6z"/>
		<path class="st0" d="M217.7,79.6c0-0.8,0-0.9-0.6-1.3l-0.2-0.1c-0.1-0.1-0.1-0.3,0-0.4c0.5-0.2,1.5-0.7,2.1-1.1
			c0.1,0,0.2,0,0.3,0.1c0,0.4-0.1,0.7-0.1,1c0,0.1,0,0.3,0.2,0.3c0.3-0.1,1.6-1,2.9-1c2.1,0,3.5,1.7,3.5,3.8c0,2.9-2.1,5-5.1,5
			c-0.4,0-1,0-1.2-0.1c-0.2,0-0.3,0.1-0.3,0.6v2.2c0,1.5,0,1.7,0.8,1.8l0.8,0.1c0.1,0.1,0.1,0.5,0,0.5c-1,0-1.6-0.1-2.4-0.1
			c-0.8,0-1.4,0-2,0.1c-0.1-0.1-0.2-0.4,0-0.5l0.4-0.1c0.8-0.1,0.8-0.3,0.8-1.8v-9H217.7z M219.3,83.5c0,0.7,0.2,0.9,0.6,1.3
			c0.4,0.3,1.1,0.5,1.5,0.5c1.7,0,2.7-1.6,2.7-3.8c0-1.7-0.9-3.4-2.8-3.4c-0.9,0-1.6,0.3-1.8,0.6c-0.2,0.2-0.3,0.5-0.3,1.2v3.6
			H219.3z"/>
		<path class="st0" d="M228.6,79.6c0-0.8,0-0.9-0.6-1.3l-0.2-0.1c-0.1-0.1-0.1-0.3,0-0.4c0.5-0.2,1.6-0.7,2.1-1
			c0.1,0,0.2,0.1,0.2,0.1v1.2c0,0.1,0,0.2,0.1,0.2c0.7-0.6,1.5-1.3,2.3-1.3c0.5,0,0.9,0.3,0.9,0.8c0,0.7-0.6,1-0.9,1
			c-0.2,0-0.3-0.1-0.5-0.1c-0.3-0.2-0.6-0.3-0.9-0.3c-0.3,0-0.6,0.2-0.8,0.4c-0.2,0.3-0.3,0.9-0.3,1.6v2.9c0,1.5,0,1.8,0.8,1.8
			l0.8,0.1c0.1,0.1,0.1,0.5,0,0.5c-1,0-1.6-0.1-2.3-0.1c-0.8,0-1.4,0-1.9,0.1c-0.1-0.1-0.2-0.4,0-0.5l0.4-0.1
			c0.8-0.1,0.8-0.3,0.8-1.8L228.6,79.6L228.6,79.6z"/>
		<path class="st0" d="M236.1,80.3c-0.5,0-0.6,0-0.6,0.6c0,2.1,1.2,3.9,3.5,3.9c0.7,0,1.3-0.2,1.9-1c0.2-0.1,0.4,0.1,0.4,0.3
			c-0.7,1.4-2.2,2-3.3,2c-1.4,0-2.4-0.6-3-1.4s-0.9-1.8-0.9-2.7c0-2.6,1.7-4.7,4.2-4.7c1.8,0,3,1.2,3,2.5c0,0.3,0,0.5-0.1,0.5
			c-0.1,0.1-0.4,0.1-1.2,0.1h-3.9V80.3z M237.4,79.6c1.6,0,2-0.1,2.2-0.2c0.1,0,0.1-0.1,0.1-0.4c0-0.6-0.4-1.3-1.6-1.3
			c-1.2,0-2.3,1.1-2.3,1.8c0,0,0,0.1,0.1,0.1H237.4z"/>
		<path class="st0" d="M247.4,77.5c0.2,0.5,0.3,1.1,0.3,1.7c-0.1,0.1-0.4,0.2-0.5,0.1c-0.4-0.9-1-1.5-1.8-1.5s-1.3,0.5-1.3,1.3
			c0,0.9,0.9,1.3,1.6,1.7c1.1,0.6,2.1,1.3,2.1,2.8c0,1.6-1.5,2.4-3,2.4c-1,0-1.7-0.2-2.2-0.6c-0.2-0.4-0.3-1.4-0.3-2.1
			c0.1-0.1,0.4-0.1,0.5,0c0.4,1.2,1,2.2,2.2,2.2c0.8,0,1.4-0.4,1.4-1.3c0-1-0.8-1.5-1.6-1.9c-1.2-0.7-2.1-1.4-2.1-2.6
			c0-1.5,1.3-2.4,2.9-2.4C246.4,77.1,247.2,77.3,247.4,77.5z"/>
		<path class="st0" d="M251.2,80.3c-0.5,0-0.6,0-0.6,0.6c0,2.1,1.2,3.9,3.5,3.9c0.7,0,1.3-0.2,1.9-1c0.2-0.1,0.4,0.1,0.4,0.3
			c-0.7,1.4-2.2,2-3.3,2c-1.4,0-2.4-0.6-3-1.4s-0.9-1.8-0.9-2.7c0-2.6,1.7-4.7,4.2-4.7c1.8,0,3,1.2,3,2.5c0,0.3,0,0.5-0.1,0.5
			c-0.1,0.1-0.4,0.1-1.2,0.1h-3.9V80.3z M252.5,79.6c1.6,0,2-0.1,2.2-0.2c0.1,0,0.1-0.1,0.1-0.4c0-0.6-0.4-1.3-1.6-1.3
			c-1.2,0-2.3,1.1-2.3,1.8c0,0,0,0.1,0.1,0.1H252.5z"/>
		<path class="st0" d="M258.8,79.6c0-0.8,0-0.9-0.6-1.3l-0.2-0.1c-0.1-0.1-0.1-0.3,0-0.4c0.5-0.2,1.7-0.7,2.1-1c0.1,0,0.2,0,0.2,0.1
			c0,0.5,0,0.8,0,1c0,0.1,0.1,0.2,0.2,0.2c0.9-0.5,1.9-1.1,2.9-1.1c1.7,0,2.5,1.2,2.5,2.6v3.6c0,1.5,0,1.7,0.8,1.8l0.5,0.1
			c0.1,0.1,0.1,0.5,0,0.5c-0.6,0-1.2-0.1-2-0.1s-1.4,0-2,0.1c-0.1-0.1-0.2-0.4,0-0.5l0.4-0.1c0.8-0.1,0.8-0.3,0.8-1.8v-3.1
			c0-1.2-0.5-2.1-2-2.1c-0.8,0-1.5,0.3-1.8,0.7c-0.3,0.4-0.3,0.7-0.3,1.3v3.2c0,1.5,0,1.7,0.8,1.8l0.4,0.1c0.1,0.1,0.1,0.5,0,0.5
			c-0.6,0-1.2-0.1-1.9-0.1c-0.8,0-1.4,0-2,0.1c-0.1-0.1-0.2-0.4,0-0.5L258,85c0.8-0.1,0.8-0.3,0.8-1.8L258.8,79.6L258.8,79.6z"/>
		<path class="st0" d="M271.6,78.3c-0.4,0-0.4,0.1-0.4,0.5v3.9c0,1.2,0.1,2.3,1.5,2.3c0.2,0,0.4,0,0.6-0.1s0.5-0.3,0.5-0.3
			c0.2,0,0.3,0.2,0.2,0.4c-0.4,0.4-1.1,1-2.2,1c-1.8,0-2.2-1-2.2-2.3v-4.8c0-0.6,0-0.6-0.4-0.6h-0.6c-0.1-0.1-0.1-0.3-0.1-0.4
			c0.6-0.2,1.1-0.5,1.3-0.7c0.3-0.3,0.7-0.8,0.9-1.2c0.1,0,0.4,0,0.4,0.1V77c0,0.4,0,0.4,0.4,0.4h2.3c0.3,0.2,0.2,0.8,0,0.9H271.6z"
			/>
		<path class="st0" d="M279.2,81.3c0.3-0.1,0.4-0.3,0.4-0.6v-1c0-0.8-0.2-1.8-1.5-1.8c-0.6,0-1.3,0.3-1.3,0.9c0,0.3,0,0.6-0.2,0.7
			c-0.3,0.3-0.9,0.4-1.2,0.4c-0.2,0-0.3-0.1-0.3-0.3c0-1.1,2.4-2.6,3.9-2.6s2.2,0.9,2.2,2.5l-0.1,3.7c0,1,0.1,1.8,1,1.8
			c0.2,0,0.4-0.1,0.5-0.1c0.1-0.1,0.2-0.1,0.3-0.1c0.1,0,0.1,0.1,0.1,0.3c0,0.1-0.7,0.9-1.8,0.9c-0.5,0-1-0.2-1.4-0.7
			c-0.1-0.1-0.2-0.3-0.3-0.3c-0.1,0-0.4,0.2-0.8,0.4c-0.5,0.3-0.9,0.5-1.5,0.5s-1.1-0.2-1.5-0.5c-0.4-0.4-0.7-0.9-0.7-1.5
			c0-0.8,0.4-1.3,1.7-1.8L279.2,81.3z M277.9,85c0.4,0,1.1-0.3,1.3-0.5c0.3-0.3,0.3-0.5,0.3-1v-1.2c0-0.2-0.1-0.3-0.2-0.3
			s-0.5,0.1-0.9,0.2c-1.2,0.4-1.8,0.7-1.8,1.6C276.6,84.1,276.8,85,277.9,85z"/>
		<path class="st0" d="M286.5,78.3c-0.4,0-0.4,0.1-0.4,0.5v3.9c0,1.2,0.1,2.3,1.5,2.3c0.2,0,0.4,0,0.6-0.1s0.5-0.3,0.5-0.3
			c0.2,0,0.3,0.2,0.2,0.4c-0.4,0.4-1.1,1-2.2,1c-1.8,0-2.2-1-2.2-2.3v-4.8c0-0.6,0-0.6-0.4-0.6h-0.6c-0.1-0.1-0.1-0.3-0.1-0.4
			c0.6-0.2,1.1-0.5,1.3-0.7c0.3-0.3,0.7-0.8,0.9-1.2c0.1,0,0.4,0,0.4,0.1V77c0,0.4,0,0.4,0.4,0.4h2.3c0.3,0.2,0.2,0.8,0,0.9H286.5z"
			/>
		<path class="st0" d="M291.2,79.6c0-0.8,0-0.9-0.6-1.3l-0.2-0.1c-0.1-0.1-0.1-0.3,0-0.4c0.5-0.2,1.7-0.7,2.2-1c0.1,0,0.2,0,0.2,0.1
			c0,0.7-0.1,1.7-0.1,2.6v3.8c0,1.5,0,1.7,0.8,1.8l0.4,0.1c0.1,0.1,0.1,0.5,0,0.5c-0.6,0-1.2-0.1-2-0.1s-1.4,0-2,0.1
			c-0.1-0.1-0.2-0.4,0-0.5l0.4-0.1c0.8-0.1,0.8-0.3,0.8-1.8v-3.7H291.2z M292.9,73.6c0,0.8-0.5,1.1-1.1,1.1c-0.7,0-1.1-0.5-1.1-1
			c0-0.7,0.5-1.1,1.1-1.1C292.5,72.6,292.9,73.1,292.9,73.6z"/>
		<path class="st0" d="M304,81.4c0,2.6-1.8,4.5-4.4,4.5c-2.4,0-4.3-1.7-4.3-4.3c0-2.6,2-4.5,4.5-4.5C302.1,77.1,304,78.8,304,81.4z
			 M299.5,77.7c-1.4,0-2.4,1.3-2.4,3.6c0,1.9,0.9,4,2.7,4s2.4-1.9,2.4-3.5C302.2,80,301.5,77.7,299.5,77.7z"/>
		<path class="st0" d="M306.8,79.6c0-0.8,0-0.9-0.6-1.3l-0.2-0.1c-0.1-0.1-0.1-0.3,0-0.4c0.5-0.2,1.7-0.7,2.1-1c0.1,0,0.2,0,0.2,0.1
			c0,0.5,0,0.8,0,1c0,0.1,0.1,0.2,0.2,0.2c0.9-0.5,1.9-1.1,2.9-1.1c1.7,0,2.5,1.2,2.5,2.6v3.6c0,1.5,0,1.7,0.8,1.8l0.5,0.1
			c0.1,0.1,0.1,0.5,0,0.5c-0.6,0-1.2-0.1-2-0.1s-1.4,0-2,0.1c-0.1-0.1-0.2-0.4,0-0.5l0.4-0.1c0.8-0.1,0.8-0.3,0.8-1.8v-3.1
			c0-1.2-0.5-2.1-2-2.1c-0.8,0-1.5,0.3-1.8,0.7c-0.3,0.4-0.3,0.7-0.3,1.3v3.2c0,1.5,0,1.7,0.8,1.8l0.4,0.1c0.1,0.1,0.1,0.5,0,0.5
			c-0.6,0-1.2-0.1-1.9-0.1c-0.8,0-1.4,0-2,0.1c-0.1-0.1-0.2-0.4,0-0.5L306,85c0.8-0.1,0.8-0.3,0.8-1.8L306.8,79.6L306.8,79.6z"/>
	</g>
</g>
</svg>
